<?xml version="1.0" encoding="utf-8"?>
<!-- Generator: Adobe Illustrator 23.0.1, SVG Export Plug-In . SVG Version: 6.00 Build 0)  -->
<svg version="1.1" id="Capa_1" xmlns="http://www.w3.org/2000/svg" xmlns:xlink="http://www.w3.org/1999/xlink" x="0px" y="0px"
	 viewBox="0 0 141.73 141.73" style="enable-background:new 0 0 141.73 141.73;" xml:space="preserve">
<style type="text/css">
	.st0{fill:#010101;}
	.st1{fill:none;}
</style>
<g>
	<path class="st0" d="M118.86,81.73h-13.24v-6.48c0-1.19-0.74-2.16-1.65-2.16H80.8c-0.91,0-1.65,0.97-1.65,2.16v6.48H62.59v-6.48
		c0-1.19-0.74-2.16-1.65-2.16H37.77c-0.91,0-1.65,0.97-1.65,2.16v6.48H22.87c-0.91,0-1.65,0.97-1.65,2.16v8.63
		c0,1.19,0.74,2.16,1.65,2.16h1.65V126c0,1.19,0.74,2.16,1.65,2.16h89.37c0.91,0,1.65-0.97,1.65-2.16V94.69h1.65
		c0.91,0,1.65-0.97,1.65-2.16v-8.63C120.52,82.7,119.77,81.73,118.86,81.73z M82.45,77.42h19.86v4.32H82.45V77.42z M39.42,77.42
		h19.86v4.32H39.42V77.42z M27.84,94.69h41.37v29.16H27.84V94.69z M113.9,123.84H72.52V94.69h41.37V123.84z M117.21,90.37H24.53
		v-4.32h92.68V90.37z"/>
	<path class="st0" d="M23.38,55.62h94.98c1.19,0,2.16-0.97,2.16-2.16V40.51c0-0.72-0.36-1.4-0.96-1.8l-11.99-7.99V14.94
		c0-1.19-0.97-2.16-2.16-2.16H36.33c-1.19,0-2.16,0.97-2.16,2.16v15.78L22.18,38.7c-0.6,0.4-0.96,1.08-0.96,1.8v12.95
		C21.22,54.65,22.18,55.62,23.38,55.62z M103.25,17.1v12.62H38.49V17.1H103.25z M36.98,34.03h67.78l6.48,4.32H30.5L36.98,34.03z
		 M25.53,42.66h90.66v8.63H25.53L25.53,42.66z"/>
	<path class="st0" d="M34.17,44.82h8.63v4.32h-8.63V44.82z"/>
	<path class="st0" d="M47.12,44.82h8.63v4.32h-8.63V44.82z"/>
	<path class="st0" d="M60.07,44.82h8.63v4.32h-8.63V44.82z"/>
	<path class="st0" d="M73.02,44.82h8.63v4.32h-8.63V44.82z"/>
	<path class="st0" d="M85.98,44.82h8.63v4.32h-8.63V44.82z"/>
	<path class="st0" d="M98.93,44.82h8.63v4.32h-8.63V44.82z"/>
	<path class="st0" d="M62.59,105.18h3.31v8.63h-3.31V105.18z"/>
	<path class="st0" d="M75.83,105.18h3.31v8.63h-3.31V105.18z"/>
</g>
</svg>
