<?xml version="1.0" encoding="utf-8"?>
<!-- Generator: Adobe Illustrator 19.0.0, SVG Export Plug-In . SVG Version: 6.00 Build 0)  -->
<svg version="1.1" id="Capa_1" xmlns="http://www.w3.org/2000/svg" xmlns:xlink="http://www.w3.org/1999/xlink" x="0px" y="0px"
	 viewBox="106 -106 512 512" style="enable-background:new 106 -106 512 512;" xml:space="preserve">
<style type="text/css">
	.st0{fill:#7A7A7A;}
</style>
<g>
	<path id="LinkedIn" class="st0" d="M618,205.3v189.3H508.3V218c0-44.4-15.9-74.6-55.6-74.6c-30.3,0-48.4,20.4-56.3,40.1
		c-2.9,7.1-3.6,16.9-3.6,26.8v184.4H282.9c0,0,1.5-299.1,0-330.1h109.8v46.8c-0.2,0.3-0.5,0.7-0.7,1.1h0.7v-1.1
		c14.6-22.5,40.6-54.5,98.9-54.5C563.9,56.8,618,103.9,618,205.3z M168.1-94.6c-37.6,0-62.1,24.6-62.1,57
		c0,31.7,23.9,57.1,60.7,57.1h0.7c38.3,0,62.1-25.4,62.1-57.1C228.8-70,205.7-94.6,168.1-94.6z M112.5,394.6h109.7V64.5H112.5V394.6
		z"/>
</g>
</svg>
