<?xml version="1.0" encoding="utf-8"?>
<!-- Generator: Adobe Illustrator 23.0.1, SVG Export Plug-In . SVG Version: 6.00 Build 0)  -->
<svg version="1.1" id="Capa_1" xmlns="http://www.w3.org/2000/svg" xmlns:xlink="http://www.w3.org/1999/xlink" x="0px" y="0px"
	 viewBox="0 0 141.73 141.73" style="enable-background:new 0 0 141.73 141.73;" xml:space="preserve">
<style type="text/css">
	.st0{fill:#010101;}
	.st1{fill:none;}
</style>
<g>
	<rect x="38.17" y="101.91" class="st1" width="32.44" height="8.61"/>
	<path class="st1" d="M54.33,70.01c2.12,0,4.25-0.27,6.34-0.78l0.49-0.13c1.86-0.51,3.67-1.23,5.38-2.15
		c-2.93-3.53-7.32-5.55-12.13-5.55s-9.2,2.02-12.13,5.55c3.48,1.87,7.39,2.93,11.33,3.05L54.33,70.01z"/>
	<polygon class="st1" points="56.89,75.14 56.89,75.14 56.89,75.14 	"/>
	<path class="st1" d="M23.88,122.44h61.04V89.99H23.88V122.44z M32.49,99.07c0-1.67,1.17-2.84,2.84-2.84h38.13
		c0.83,0,1.54,0.27,2.05,0.79c0.52,0.52,0.79,1.23,0.79,2.05v14.3c0,1.67-1.17,2.84-2.84,2.84H35.33c-1.67,0-2.84-1.17-2.84-2.84
		V99.07z"/>
	<path class="st1" d="M55.77,75.66l-0.3,0.01c-0.71,0.02-1.43,0.02-2.14,0l-0.31-0.01c-0.29-0.01-0.59-0.03-0.88-0.05l-0.37-0.03
		c-0.25-0.02-0.5-0.04-0.76-0.07l-1.03-0.13c-0.26-0.04-0.53-0.08-0.79-0.12l-1.48-0.28v9.32h13.38v-9.32
		c-0.96,0.21-1.94,0.37-2.93,0.49l-0.3,0.03c-0.31,0.03-0.62,0.06-0.93,0.09l-0.21,0.02C56.4,75.63,56.09,75.65,55.77,75.66z"/>
	<path class="st1" d="M71.3,63.64c5.63-4.91,8.85-11.95,8.85-19.39c0-14.2-11.55-25.75-25.75-25.75S28.64,30.06,28.64,44.26
		c0,7.48,3.25,14.54,8.93,19.46c4.19-5.09,10.29-8,16.82-8C61.06,55.71,67.05,58.53,71.3,63.64z M73.46,41.42
		c1.76,0,2.84,1.48,2.84,2.84c0,1.67-1.17,2.84-2.84,2.84c-1.67,0-2.84-1.17-2.84-2.84C70.62,42.59,71.79,41.42,73.46,41.42z
		 M37.38,46.31c-0.52,0.52-1.22,0.79-2.05,0.79h0c-1.67,0-2.84-1.17-2.84-2.84s1.17-2.84,2.84-2.84c1.76,0,2.84,1.48,2.84,2.84
		C38.17,45.08,37.9,45.79,37.38,46.31z M40.1,35.19c-1.67,0-2.84-1.17-2.84-2.84c0-1.67,1.17-2.84,2.84-2.84
		c1.76,0,2.84,1.48,2.84,2.84C42.94,34.02,41.77,35.19,40.1,35.19z M55.86,51.06c-0.5,0.25-1.19,0.41-1.86,0.41
		c-0.77,0-1.51-0.21-1.88-0.74l-8.09-9.51c-0.5-0.49-0.76-1.24-0.71-2.03c0.06-0.8,0.44-1.54,1.02-1.97
		c0.47-0.48,1.22-0.75,2.01-0.69c0.8,0.06,1.54,0.44,1.97,1.02l7.85,9.52c0.49,0.49,0.76,1.24,0.71,2.02
		C56.83,49.88,56.45,50.62,55.86,51.06z M54.4,28.04c-1.67,0-2.84-1.17-2.84-2.84c0-1.67,1.17-2.84,2.84-2.84
		c1.76,0,2.84,1.48,2.84,2.84C57.24,26.87,56.07,28.04,54.4,28.04z M65.85,32.34c0-1.67,1.17-2.84,2.84-2.84
		c1.76,0,2.84,1.48,2.84,2.84c0,1.67-1.17,2.84-2.84,2.84C67.02,35.19,65.85,34.02,65.85,32.34z"/>
	<path class="st0" d="M19.11,117.81v7.47c0,1.17,0.76,1.92,1.92,1.92h66.72c1.17,0,1.92-0.76,1.92-1.92v-7.61h29.05
		c1.17,0,1.92-0.76,1.92-1.92c0-1.17-0.76-1.92-1.92-1.92H89.68V98.61h29.05c1.17,0,1.92-0.76,1.92-1.92c0-1.17-0.76-1.92-1.92-1.92
		H89.68v-7.61c0-1.17-0.76-1.92-1.92-1.92H65.61V72.66l0.29-0.12c11.55-4.68,19.02-15.78,19.02-28.29
		c0-16.83-13.69-30.52-30.52-30.52S23.88,27.43,23.88,44.26c0,12.39,7.37,23.46,18.78,28.19l0.28,0.12v12.66H21.03
		c-1.17,0-1.92,0.76-1.92,1.92v7.22 M19.11,99.07v13.82 M38,64.65l-0.29,0.37l-0.36-0.3c-6.11-5.1-9.62-12.56-9.62-20.46
		c0-14.71,11.97-26.67,26.67-26.67s26.67,11.96,26.67,26.67c0,7.86-3.47,15.3-9.53,20.39l-0.36,0.3l-0.29-0.37
		c-4.09-5.13-9.94-7.95-16.48-7.95C48,56.63,42.02,59.56,38,64.65z M41.34,67.49l-0.46-0.26l0.32-0.42
		c3.1-4.02,7.91-6.33,13.19-6.33c5.28,0,10.09,2.31,13.19,6.33l0.32,0.42l-0.46,0.26c-1.91,1.08-3.95,1.92-6.06,2.5l-0.42,0.11
		c-2.24,0.55-4.45,0.82-6.64,0.83l-0.76-0.01C49.3,70.78,45.07,69.6,41.34,67.49z M56.85,74.68c0.3-0.02,0.6-0.05,0.9-0.09
		l0.29-0.03c1.14-0.14,2.28-0.34,3.39-0.6L62,73.83v11.39H46.79V73.84l2.44,0.51c0.36,0.06,0.62,0.1,0.87,0.13l1,0.12
		c0.24,0.03,0.49,0.05,0.73,0.07l0.36,0.03c0.28,0.02,0.57,0.04,0.85,0.05l0.3,0.01c0.69,0.02,1.39,0.02,2.07,0l0.29-0.01
		c0.31-0.01,0.62-0.03,0.92-0.05l0.24,0.44c0,0,0,0,0,0L56.85,74.68z M22.96,89.08h62.87v34.28H22.96V89.08z"/>
	<path class="st0" d="M35.33,115.29h38.13c1.17,0,1.92-0.76,1.92-1.92v-14.3c0-0.58-0.18-1.06-0.52-1.4
		c-0.34-0.34-0.83-0.52-1.4-0.52H35.33c-1.17,0-1.92,0.76-1.92,1.92v14.3C33.41,114.53,34.16,115.29,35.33,115.29z M37.26,100.99
		h34.28v10.45H37.26V100.99z"/>
	<path class="st0" d="M35.33,42.33c-1.17,0-1.92,0.76-1.92,1.92s0.76,1.92,1.92,1.92h0c0.58,0,1.06-0.18,1.4-0.52
		c0.34-0.34,0.52-0.83,0.52-1.4C37.26,43.33,36.52,42.33,35.33,42.33z"/>
	<path class="st0" d="M73.46,46.18c1.17,0,1.92-0.76,1.92-1.92c0-0.93-0.74-1.92-1.92-1.92c-1.17,0-1.92,0.76-1.92,1.92
		C71.54,45.43,72.29,46.18,73.46,46.18z"/>
	<path class="st0" d="M40.1,30.42c-1.17,0-1.92,0.76-1.92,1.92c0,1.17,0.76,1.92,1.92,1.92s1.92-0.76,1.92-1.92
		C42.02,31.42,41.29,30.42,40.1,30.42z"/>
	<path class="st0" d="M54.4,23.27c-1.17,0-1.92,0.76-1.92,1.92c0,1.17,0.76,1.92,1.92,1.92c1.17,0,1.92-0.76,1.92-1.92
		C56.32,24.27,55.58,23.27,54.4,23.27z"/>
	<path class="st0" d="M68.69,30.42c-1.17,0-1.92,0.76-1.92,1.92c0,1.17,0.76,1.92,1.92,1.92c1.17,0,1.92-0.76,1.92-1.92
		C70.62,31.42,69.88,30.42,68.69,30.42z"/>
	<path class="st0" d="M47.61,38.12c-0.29-0.39-0.78-0.64-1.32-0.67c-0.05,0-0.1,0-0.15,0c-0.47,0-0.89,0.16-1.2,0.47
		c-0.42,0.32-0.67,0.81-0.71,1.35c-0.04,0.53,0.13,1,0.47,1.34l8.16,9.6c0.3,0.45,1.68,0.5,2.51,0.08c0.3-0.24,0.55-0.72,0.59-1.26
		c0.04-0.53-0.13-1-0.47-1.34L47.61,38.12z"/>
</g>
</svg>
