<?xml version="1.0" encoding="utf-8"?>
<!-- Generator: Adobe Illustrator 23.0.1, SVG Export Plug-In . SVG Version: 6.00 Build 0)  -->
<svg version="1.1" id="Capa_1" xmlns="http://www.w3.org/2000/svg" xmlns:xlink="http://www.w3.org/1999/xlink" x="0px" y="0px"
	 viewBox="0 0 141.73 141.73" style="enable-background:new 0 0 141.73 141.73;" xml:space="preserve">
<style type="text/css">
	.st0{fill:#010101;}
	.st1{fill:none;}
</style>
<g>
	<path class="st0" d="M114.33,40.41c1.04,0,1.88-0.84,1.88-1.88s-0.84-1.88-1.88-1.88H84.48c-1.04,0-1.88,0.84-1.88,1.88
		s0.84,1.88,1.88,1.88H114.33z"/>
	<path class="st0" d="M61.94,110.51c-1.04,0-1.88,0.84-1.88,1.88c0,1.04,0.84,1.88,1.88,1.88h16.34c1.04,0,1.88-0.84,1.88-1.88
		c0-1.04-0.84-1.88-1.88-1.88H61.94z"/>
	<path class="st0" d="M24.02,55.52v36.2c0,2.84,2.31,5.15,5.15,5.15h81.89c2.84,0,5.15-2.31,5.15-5.15v-36.2
		c0-2.84-2.31-5.15-5.15-5.15H29.17C26.33,50.37,24.02,52.68,24.02,55.52z M112.45,55.52v36.2c0,0.77-0.63,1.4-1.4,1.4H29.17
		c-0.77,0-1.4-0.63-1.4-1.4v-36.2c0-0.77,0.63-1.4,1.4-1.4h81.89C111.82,54.12,112.45,54.75,112.45,55.52z"/>
	<path class="st0" d="M120.68,12.64H19.55c-4.16,0-7.55,3.38-7.55,7.55v13.42c0,1.04,0.84,1.88,1.88,1.88s1.88-0.84,1.88-1.88v-6.97
		h108.71v75.41h-15.71c-1.04,0-1.88,0.84-1.88,1.88c0,1.04,0.84,1.88,1.88,1.88h15.71v7.03c0,2.09-1.7,3.79-3.79,3.79H19.55
		c-2.09,0-3.79-1.7-3.79-3.79v-7.03h85.49c1.04,0,1.88-0.84,1.88-1.88c0-1.04-0.84-1.88-1.88-1.88H15.76V41.12
		c0-1.04-0.84-1.88-1.88-1.88S12,40.08,12,41.12v71.72c0,4.16,3.38,7.55,7.55,7.55h1.02v3.9c0,2.21,1.8,4.01,4.01,4.01h8.09
		c2.21,0,4.01-1.8,4.01-4.01v-3.9h66.86v3.9c0,2.21,1.8,4.01,4.01,4.01h8.09c2.21,0,4.01-1.8,4.01-4.01v-3.9h1.02
		c4.16,0,7.55-3.39,7.55-7.55c0-4.92,0-87.74,0-92.65C128.22,16.03,124.84,12.64,120.68,12.64z M32.93,124.28
		c0,0.14-0.12,0.26-0.26,0.26h-8.09c-0.14,0-0.26-0.12-0.26-0.26v-3.9h8.6L32.93,124.28L32.93,124.28z M115.9,124.28
		c0,0.14-0.12,0.26-0.26,0.26h-8.09c-0.14,0-0.26-0.12-0.26-0.26v-3.9h8.6V124.28z M42.82,22.89H32.23 M28.48,22.89H15.76v-2.7
		c0-2.09,1.7-3.79,3.79-3.79h101.13c2.09,0,3.79,1.7,3.79,3.79v2.7"/>
	<path class="st0" d="M30.08,32.12c-3.54,0-6.41,2.88-6.41,6.41s2.88,6.41,6.41,6.41c3.54,0,6.41-2.88,6.41-6.41
		S33.62,32.12,30.08,32.12z M30.08,41.19c-1.47,0-2.66-1.19-2.66-2.66s1.19-2.66,2.66-2.66c1.47,0,2.66,1.19,2.66,2.66
		S31.55,41.19,30.08,41.19z"/>
	<path class="st0" d="M54.36,38.54c0-3.54-2.88-6.41-6.41-6.41c-3.54,0-6.41,2.88-6.41,6.41s2.88,6.41,6.41,6.41
		C51.48,44.95,54.36,42.07,54.36,38.54z M45.29,38.54c0-1.47,1.19-2.66,2.66-2.66c1.47,0,2.66,1.19,2.66,2.66s-1.19,2.66-2.66,2.66
		C46.48,41.19,45.29,40,45.29,38.54z"/>
	<path class="st0" d="M72.22,38.54c0-3.54-2.88-6.41-6.41-6.41c-3.54,0-6.41,2.88-6.41,6.41s2.88,6.41,6.41,6.41
		C69.35,44.95,72.22,42.07,72.22,38.54z M63.15,38.54c0-1.47,1.19-2.66,2.66-2.66s2.66,1.19,2.66,2.66s-1.19,2.66-2.66,2.66
		S63.15,40,63.15,38.54z"/>
</g>
</svg>
