<?xml version="1.0" encoding="utf-8"?>
<!-- Generator: Adobe Illustrator 23.0.1, SVG Export Plug-In . SVG Version: 6.00 Build 0)  -->
<svg version="1.1" id="Capa_1" xmlns="http://www.w3.org/2000/svg" xmlns:xlink="http://www.w3.org/1999/xlink" x="0px" y="0px"
	 viewBox="0 0 141.73 141.73" style="enable-background:new 0 0 141.73 141.73;" xml:space="preserve">
<style type="text/css">
	.st0{fill:#010101;}
	.st1{fill:none;}
</style>
<g>
	<path d="M86.32,98.85c1.84,0.1,3.83-0.26,5.56-0.91c3.74-1.42,6.52-4.12,7.76-7.94c2.96-9.14-3.4-17.8-12.4-17.82
		c-0.03-0.11-3.94,0.47-5.73,1.2c-3.72,1.52-6.08,4.42-7.25,8.21c-1.34,4.33-0.28,8.39,2.17,11.97
		C78.74,96.94,82.28,98.64,86.32,98.85z M87.06,76.46c5.01,0.01,8.95,3.99,8.95,9.02c0,4.11-1.79,8.77-8.6,9.28
		c-3.18-0.33-5.72-0.96-7.76-3.63c-1.1-1.45-1.43-3.74-1.51-5.67C77.94,80.44,82.06,76.44,87.06,76.46z"/>
	<path d="M138.63,92.93c0-18.91,0.01-37.82-0.02-56.73c0-1.23-0.08-2.54-0.52-3.67c-1.54-4-4.57-5.74-8.85-5.74
		c-24.9,0.04-33.7,0-58.6,0.07c-1.89,0.01-2.9-0.75-3.8-2.22c-1.64-2.67-3.35-5.3-5.13-7.88c-1.7-2.47-5.05-3.69-7.86-3.01
		c-3.11,0.76-5.43,3.34-5.74,6.54c-0.14,1.45-0.07,2.93-0.09,4.39c-0.02,1.83-0.32,2.13-2.09,2.13c-19,0-8.72,0-27.72,0
		c-6.89,0,0.85-0.03-6.04,0.03c-1.26,0.01-2.61,0.18-3.76,0.67c-3.73,1.59-5.33,4.55-5.29,8.6c0.07,8.74,0.02,17.49,0.01,26.24
		C3.13,73,3.1,83.66,3.09,94.31c-0.01,5.26-0.02,10.51,0.03,15.77c0.01,1.02,0.01,7.76,0.2,10.09c0.1,1.29,0.77,2.65,1.53,3.74
		c1.85,2.66,4.59,3.47,7.76,3.47c29.42-0.04,112.04,0.03,117.04-0.06c1.34-0.02,2.8-0.21,3.99-0.78c3.49-1.65,5.04-4.55,5.01-8.42
		C138.6,109.73,138.63,101.33,138.63,92.93z M53.69,18.61c1.52-1.08,3.48-0.77,4.64,0.87c1.17,1.64,2.23,3.36,3.32,5.06
		c2.93,4.55,5.84,9.1,8.77,13.65c2.95,4.58,5.92,9.15,8.89,13.73c1.59,2.45,3.15,4.91,4.78,7.33c1.43,2.12,1.55,3.61,0.13,5
		c-0.57,0.56-1.41,0.86-2.12,1.28c-2.02-0.13-2.86-1.53-3.7-2.81c-4.45-6.83-8.86-13.69-13.28-20.55
		c-3.62-5.63-7.23-11.28-10.84-16.91c-0.44-0.69-0.89-1.36-1.33-2.06C51.91,21.52,52.21,19.66,53.69,18.61z M121.88,97.96
		c0.08,7.72-6.42,14.4-13.75,14.83h0c-0.37,0.02-0.73,0.03-1.1,0.02c-0.27-0.01-0.54-0.01-0.81-0.02l-11.78,0.04
		c-1.68,0.03,11.27,0.03,9.59,0.02l-21.84,0.08c-12.52,0-15.19-7.22-15.62-13.54c-0.26-3.8,0.11-8.05,0.11-8.05l0,0
		c-0.01-11.67-0.01-23.34,0-35.01c0-0.8,0.21-1.6,0.32-2.4c0.18,0,0.36,0,0.55-0.01c1.84,2.84,3.67,5.69,5.52,8.52
		c1.01,1.54,1.96,3.14,3.11,4.57c2.48,3.06,6.39,3.15,9.05,1.92c3.3-1.53,5.04-5.26,4.11-8.62c-0.41-1.45-1.26-2.82-2.08-4.12
		c-2.7-4.28-5.49-8.52-8.23-12.77c-0.87-1.35-0.65-1.82,0.91-2c0.51-0.06,1.03-0.07,1.55-0.07c13.31,0,11.98-0.01,25.28,0.01
		c6.73,0.01,12.48,4.16,14.51,10.53c0.41,1.29,0.53,2.72,0.53,4.08C121.85,69.97,121.74,83.96,121.88,97.96z M52.32,32.87
		c0-0.42,0.23-0.84,0.36-1.25c0.14-0.01,0.27-0.02,0.41-0.02c1.06,1.6,2.14,3.19,3.18,4.8c1.21,1.87,2.39,3.76,3.58,5.64
		c1.18,1.87,0.39,3.8-1.83,4.46c-2.76,0.82-5.57-1.08-5.66-3.95C52.25,39.32,52.3,36.09,52.32,32.87z M129.3,123.14
		c-58.93-0.07-57.85-0.07-116.78,0c-3.19,0-5.23-2.42-5.18-5.21c0.14-7.61,0.05-15.22,0.05-22.83c0-19.58,0-39.16-0.03-58.74
		c0-2.13,0.61-3.85,2.59-4.77c0.82-0.38,1.82-0.52,2.74-0.52c25.2-0.03,32.98-0.01,33.63-0.03c1.17-0.04,1.73,0.45,1.72,1.69
		c-0.03,3.23-0.02,6.46,0.01,9.69c0.02,3.34,1.55,5.82,4.42,7.5c2.72,1.6,6.82,1.34,9.39-0.6c0.44-0.33,0.9-0.63,1.7-1.19
		c0,0.77,0.05,1.17-0.01,1.55c-0.4,2.49-1.16,4.97-1.18,7.46c-0.13,12.41-0.1,24.81-0.04,37.22c0.01,2.62,0.23,5.26,0.6,7.85
		c0.61,4.34,3.02,7.72,6.29,10.49c3.55,3,7.69,4.42,12.36,4.41c13.4-0.03,12.16,0.02,25.55-0.03c7.85-0.03,13.49-3.84,17.16-10.62
		c1.49-2.76,2.03-5.86,2.03-8.99c0.03-13.87,0.22-27.75-0.07-41.61c-0.16-8.03-4.35-13.88-11.67-17.31
		c-2.91-1.36-6.07-1.49-9.23-1.48c-12.66,0.03-10.69,0.01-23.36,0.07c-1.8,0.01-3.59,0.35-5.39,0.49c-0.43,0.03-1.1,0.01-1.28-0.25
		c-1.34-1.86-2.59-3.79-4.08-6.01c0.93-0.16,1.45-0.32,1.96-0.33c24.04-0.01,31.97-0.02,56.01-0.01c3.38,0,5.16,1.87,5.16,5.36
		c0,24.47,0.01,48.94,0.01,73.41c0,2.76-0.08,5.52,0.02,8.27C134.48,120.65,132.47,123.14,129.3,123.14z"/>
	<path d="M99.61,51.88c-1.1-0.2-2.06,0.44-2.41,1.58c-0.18,0.59,0.13,1.56,0.57,2.04c0.43,0.47,1.29,0.53,1.97,0.76
		c1.17,0.38,2.46,0.56,3.51,1.16c2.55,1.46,3.92,3.73,4.05,6.73c0.07,1.47,1.15,2.45,2.38,2.36c1.2-0.09,2.06-1.13,1.99-2.56
		C111.31,57.24,106.34,52.37,99.61,51.88z"/>
	<path d="M107.22,91.23c-0.48,2.37-1.71,4.22-3.73,5.47c-0.97,0.6-2.13,0.9-3.19,1.36c-1.74,0.76-2.02,2.58-0.43,3.59
		c0.62,0.4,1.67,0.48,2.4,0.27c1.34-0.4,2.69-0.97,3.85-1.74c3.08-2.05,4.97-4.92,5.39-9c-0.16-0.32-0.33-0.99-0.75-1.41
		C109.51,88.51,107.61,89.28,107.22,91.23z"/>
	<circle cx="87.03" cy="91.34" r="1.61"/>
	<circle cx="91.25" cy="89.5" r="1.61"/>
	<path d="M91.25,85.42c0,0.89,0.72,1.61,1.61,1.61c0.89,0,1.61-0.72,1.61-1.61c0-0.89-0.72-1.61-1.61-1.61
		C91.97,83.81,91.25,84.53,91.25,85.42z"/>
	<circle cx="91.23" cy="80.92" r="1.61"/>
	<path d="M86.07,80.93c0.72,0.53,1.72,0.38,2.25-0.34c0.53-0.72,0.38-1.72-0.34-2.25s-1.72-0.38-2.25,0.34S85.36,80.41,86.07,80.93z
		"/>
	<path d="M81.98,82.72c0.72,0.53,1.72,0.38,2.25-0.34c0.53-0.72,0.38-1.72-0.34-2.25c-0.72-0.53-1.72-0.38-2.25,0.34
		C81.11,81.18,81.26,82.19,81.98,82.72z"/>
	<path d="M80.27,86.73c0.72,0.53,1.72,0.38,2.25-0.34s0.38-1.72-0.34-2.25c-0.72-0.53-1.72-0.38-2.25,0.34
		C79.4,85.19,79.55,86.2,80.27,86.73z"/>
	<path d="M83.89,88.34c-0.72-0.53-1.72-0.38-2.25,0.34c-0.53,0.72-0.38,1.72,0.34,2.25c0.72,0.53,1.72,0.38,2.25-0.34
		C84.76,89.88,84.6,88.87,83.89,88.34z"/>
	<path d="M45.58,52.01H14.35c-1,0-1.82-0.82-1.82-1.82V48.5c0-1,0.82-1.82,1.82-1.82h31.23c1,0,1.82,0.82,1.82,1.82v1.69
		C47.4,51.19,46.58,52.01,45.58,52.01z"/>
	<path d="M45.58,65.47H14.35c-1,0-1.82-0.82-1.82-1.82v-1.69c0-1,0.82-1.82,1.82-1.82h31.23c1,0,1.82,0.82,1.82,1.82v1.69
		C47.4,64.65,46.58,65.47,45.58,65.47z"/>
	<path d="M45.58,79.8H14.35c-1,0-1.82-0.82-1.82-1.82V76.3c0-1,0.82-1.82,1.82-1.82h31.23c1,0,1.82,0.82,1.82,1.82v1.69
		C47.4,78.98,46.58,79.8,45.58,79.8z"/>
	<path d="M45.58,93.77H14.35c-1,0-1.82-0.82-1.82-1.82v-1.69c0-1,0.82-1.82,1.82-1.82h31.23c1,0,1.82,0.82,1.82,1.82v1.69
		C47.4,92.95,46.58,93.77,45.58,93.77z"/>
	<path d="M45.58,107.02H14.35c-1,0-1.82-0.82-1.82-1.82v-1.69c0-1,0.82-1.82,1.82-1.82h31.23c1,0,1.82,0.82,1.82,1.82v1.69
		C47.4,106.2,46.58,107.02,45.58,107.02z"/>
</g>
</svg>
