<?xml version="1.0" encoding="utf-8"?>
<!-- Generator: Adobe Illustrator 19.0.0, SVG Export Plug-In . SVG Version: 6.00 Build 0)  -->
<svg version="1.1" id="Layer_1" xmlns="http://www.w3.org/2000/svg" xmlns:xlink="http://www.w3.org/1999/xlink" x="0px" y="0px"
	 viewBox="1108 -100 1318 500" style="enable-background:new 1108 -100 1318 500;" xml:space="preserve">
<style type="text/css">
	.st0{fill:#F9F9F9;}
</style>
<g>
	<path class="st0" d="M1698.9,128.4c-3.6,15,2,29.9,12.5,33.3c10.5,3.5,21.9-5.9,25.4-20.8c3.6-15-2-29.9-12.5-33.3
		C1713.9,104.1,1702.5,113.5,1698.9,128.4z"/>
	<path class="st0" d="M1413.7,281.1"/>
	<path class="st0" d="M2411.7,178.2c-3.5-7.2-11.7,2.4-11.7,2.4s-50,65.9-85.8,31.7c-32.2-30.7-6.8-59-6.8-59l55.6-92.2
		c0,0,53.5-87.3,12.3-130.3c-41.2-43-61.2,16.3-73.5,46.9c-12.3,30.6-26,156.3-26,156.3s-12.5,70.9-29.7,80.9
		c-17.2,10-12.3-11.8-12.3-11.8s8-27.1,10.5-43.2c2.4-16.1-8-16.6-10.3-17.1c-2.2-0.5-2.5-3.9-2.5-3.9s3.2-6.5-4.7-16.4
		c-7.9-9.9-27.5-16.2-52.7,8c-25.2,24.2-29.7,86.4-29.7,86.4s-4.9,16.7-20.2,17.7c-15.4,1-8-28.6-8-28.6l33.9-127.3l68.5-4.7
		c0,0,10.4,0.9,10.7-6.2c0.2-7.1-10.5-8.8-10.5-8.8l-60.7-4.5c0,0,4.3-15.6,10.8-41.1s-11.4-16.3-21.2-15.1
		c-9.8,1.2-12.4,12.7-12.4,12.7l-12,43.9c0,0-28.2,2.6-52.6,4.8c-24.4,2.2-9.8,28.1-6.6,32c3.2,3.9,11.2,1.3,11.2,1.3l37.2-6.7
		c0,0-19,73.9-31.8,118.2c-12.8,44.3-24.7,32.5-24.7,32.5s-10.3-17.1,6.9-59.1c17.2-42,3-46,3-46c-19.6-15.5-49.2,18.8-49.2,18.8
		c-5,8.3-9.5,15.5-6.2-2.9c3.9-21.9-34.5,3.6-36.7,20.2c-2.2,16.6-29.8,80.5-50.9,85.4c-21.2,5-16.1-17-16.1-17s20.1-16.1,32-39.8
		c12.8-25.5,16.6-59-12.2-60.3c-65.5-3-55.7,106.3-55.7,106.3s-32.4,32.2-32.1,2.6c0.4-29.6,10.6-55.4,14.4-70.4s0.9-26.6-10.1-27.5
		s-28.6,8.7-38,17.9c-5.5,5.4-13.7,19.7-10.4,1s-15.6-3.3-23.4,0.8c-7.8,4.1-11.8,13.9-14.4,22.7c-2.6,8.8-15.4,51.1-31,68.9
		c-15.6,17.8-10.6-11.6-10.6-11.6s6.1-22.7,12.8-52c6.7-29.3-9.2-22.6-22.2-22.9c-13-0.2-16.2,14.1-16.2,14.1s-16.5,61.8-19.9,75
		c-3.5,13.2-10.2,25.6-16.7,1.8c-7.4-27-0.9-61.2-0.9-61.2l24.5-121.3l79-9.4c0,0,20.4-0.9,20.1-11.3s-13.4-9.1-13.4-9.1l-77.6-0.8
		c0.1-0.3,11.3-48.8,16.3-77.4c5-28.7-9.4-21.5-21.6-20.2c-15.1,1.5-18.9,16.9-18.9,16.9l-18.2,83.6L1552,65.1
		c-34.2,6.6-11.9,35.4-6.7,38.6c5.2,3.2,20.7,0.2,20.7,0.2l67.7-16.5c-9.4,70.8-42.6,163-45.2,169.9c-2.6,6.9-20,34.2-18.8,8.4
		c1.3-29.2,9.4-50.7,13.1-69.4c3.6-18.7-0.7-22-8.5-24.5c-8.4-2.6-33.1,3.3-44.4,20.5c-11.3,17.3-6-1-6-1s7.1-19.3-17.1-6.3
		c-5.7,3-10,7.6-13.4,12.4c-14.4,2.3-33.4-20.2-41.9-31.5c-5.2-9.9-12-16.2-19.5-17.5l0,0h-0.1c-0.7-0.1-1.4-0.3-2.1-0.3
		c-0.6,0-1.1,0-1.7,0c-0.3,0-0.5,0-0.8,0c-0.7,0-1.4,0-2.1,0.1c-26.3,2.1-47.4,35.9-59.3,60.4c-4.1,7.7-7.4,15.8-10.2,23.7
		c-0.3,0.8-0.5,1.3-0.5,1.3l0,0c-8.7,25.7-11.2,49.2-11.2,49.2c-82.9,135.7-201.4,26-152-128.1c25.2-78.7,94.1-183.4,146.3-173.8
		c42.4,7.7-2.9,113-8.4,121.2c-2.5,3.8-9.6,16.8-15.6,12.4c-6.7-5,1.1-17.3,3.8-28.3c2.7-10.9,3.8-15.2-2.2-18
		c-6.1-2.8-13.7,11.5-13.7,11.5s-37,55.5-5.9,74.1c12.5,7.5,26.6-6.2,26.6-6.2c61.7-64.2,83.9-166.9,41.9-200.1
		C1316.2-90.8,1181-9,1137.8,165c-41,164.9,46.3,212.7,85.8,218.5c53.1,7.8,116.6-48.9,121-57c4.4-8.1,8.5-7.1,8.5-7.1
		s5.9,24.5,31.4,26.9c11.8,1.1,21.7-3.2,30-10.2c7.1-4.8,28.9-23.1,41.2-70.2c2-7,3.8-14.7,4.9-23.2c0.1-0.8,0.1-1.5,0.2-2.3
		c0.5-3.4,0.7-6.1,0.8-8.2c0-0.6,0.1-1.2,0.2-1.8c0.1-2.6,0.2-5.3,0.2-8h0.1c0.1-5.2,0-10.2-0.4-14.9c10.1,8.1,18.3,10.9,22,11.7
		c-0.1,0.2-0.1,0.5-0.2,0.7c-2,10.4-11.6,60.1-11.3,78.5l-0.1,0.1c-0.1,5.1,0.1,10.8,0.7,16.5c2,18.7,8.6,16.3,8.6,16.3
		s2.5,0.3,14.5-4.9s13-22.2,15.5-47.8c1.9-19.1,18.8-53.2,24.3-61.7s4.6-0.7,4.6-0.7c-13.2,65.1,2.4,92.7,20.7,97.1
		c21.8,5.1,51.8-48.1,54.3-56.4c2.6-8.4,5-5.5,6,1c1,6.1,12.7,45,27.9,50c15.1,5.1,26.6-1.2,32.8-8.9c4.4-5.5,5.7,4.5,20.9,4.1
		c15.2-0.5,31.1-21.6,34.9-26c3.9-4.4,4.2-1.9,4.5,13.3c0.3,15.2,11.5,15.9,11.5,15.9s21.8-0.4,23.5-22.5
		c3.6-48.1,29.4-90.3,29.4-90.3c1.1-3.3,2.9-5.1,4.3-4.6c1.5,0.4-0.4,7.2-0.4,7.2s-2.8,8.9-6,38.8c-3.8,34.9,9.7,58.4,23.7,59.8
		c14,1.4,40.7-20.2,44.7-24.3s5.4-1.1,5.4-1.1s9.6,17.4,22.9,19.1c31.2,3.8,44.3-27.5,52.1-36.8c7.9-9.3,2.1,1.4,4.1,20.6
		c2,19.2,14.5,15.2,24.6,9.5s9.1-8.9,12.9-36.6c5.6-40.6,22.5-63,24.3-67.4c2.2-4.4,5.5-8.9,7.6-7.5c2.3,1.4,0.3,7.2,0.3,7.2
		s-2.2,5.1-5.7,35.6c-3.2,27.1,2.5,62.4,23.9,63.6c21.4,1.2,33.4-26.3,35.5-30.9c2.2-4.5,4.7-1.1,4.7-1.1s7.2,18,28.8,19.4
		c21.5,1.4,35.5-19.9,35.5-19.9s14.3,25.5,31.6,26.3c17.3,0.8,30.4-19.1,30.4-19.1c15.6,24.4,46.4-15.8,53.3-26.2
		c3.1-4.8,6.3-8.9,6.3-8.9s-6.8,10.6,33.3,31.6c57.9,30.3,96.3-37.1,101.9-48.1C2412.5,188.6,2414.2,183.3,2411.7,178.2z
		 M2347.5-26.8c3.8-8.4,9.5,1.9,10.6,8c1.1,6.1-1,9.2-1,9.2L2320,73.3C2320.5,52.6,2343.7-18.5,2347.5-26.8z M1410.9,288.3
		L1410.9,288.3c-2.2,5.4-4.6,10.2-6.9,13.2c-8.6,11.3-22.6,3.3-20.7-23c1.1-15.6,6.4-30,10.5-39.1l-0.1-0.2c0.9-1.9,1.8-3.7,2.8-5.6
		c0.6-1.2,1.1-2.2,1.5-2.9c8.9-16.7,20.3-32.8,24.5-38.7c0.4-0.9,1-1.7,1.7-2.3c7.4-6.2,7.4,7.6,7.4,7.6s0.3,5.6,0.3,16.4
		c0,0.7,0,1.3,0,1.9l0.1,0.4c-0.2,14.8-9.8,38.3-9.8,38.3c-0.9,4.1-2.7,8.7-4.2,13.2c-1.8,6-4.1,13.2-6.7,19.7
		C1411.1,287.8,1410.9,288.3,1410.9,288.3z M1902.3,210c-2.3-0.9-0.8-12.5,3.5-25.9c4.3-13.3,9.6-23.4,12-22.5
		c2.3,0.9,0.8,12.5-3.5,25.9S1904.6,211,1902.3,210z M2203.1,191.5c-6,22.3-15,38.8-20.2,36.9c-5.2-1.9-4.6-21.6,1.4-43.9
		c6-22.3,15-38.8,20.2-36.9C2209.7,149.6,2209.1,169.2,2203.1,191.5z"/>
</g>
</svg>
